[
  {
    "time": 1534489795845,
    "file": "2018-08-17-00-09-55.zip",
    "index": 273,
    "success": true
  },
  {
    "time": 1534490695855,
    "file": "2018-08-17-00-24-55.zip",
    "index": 274,
    "success": true
  },
  {
    "time": 1534491595905,
    "file": "2018-08-17-00-39-55.zip",
    "index": 275,
    "success": true
  },
  {
    "time": 1534492495955,
    "file": "2018-08-17-00-54-55.zip",
    "index": 276,
    "success": true
  },
  {
    "time": 1534493396005,
    "file": "2018-08-17-01-09-56.zip",
    "index": 277,
    "success": true
  },
  {
    "time": 1534494296056,
    "file": "2018-08-17-01-24-56.zip",
    "index": 278,
    "success": true
  },
  {
    "time": 1534495196106,
    "file": "2018-08-17-01-39-56.zip",
    "index": 279,
    "success": true
  },
  {
    "time": 1534496096155,
    "file": "2018-08-17-01-54-56.zip",
    "index": 280,
    "success": true
  },
  {
    "time": 1534496996206,
    "file": "2018-08-17-02-09-56.zip",
    "index": 281,
    "success": true
  },
  {
    "time": 1534497896257,
    "file": "2018-08-17-02-24-56.zip",
    "index": 282,
    "success": true
  },
  {
    "time": 1534498796306,
    "file": "2018-08-17-02-39-56.zip",
    "index": 283,
    "success": true
  },
  {
    "time": 1534499696354,
    "file": "2018-08-17-02-54-56.zip",
    "index": 284,
    "success": true
  },
  {
    "time": 1534500596406,
    "file": "2018-08-17-03-09-56.zip",
    "index": 285,
    "success": true
  },
  {
    "time": 1534501496455,
    "file": "2018-08-17-03-24-56.zip",
    "index": 286,
    "success": true
  },
  {
    "time": 1534502396505,
    "file": "2018-08-17-03-39-56.zip",
    "index": 287,
    "success": true
  },
  {
    "time": 1534503296555,
    "file": "2018-08-17-03-54-56.zip",
    "index": 288,
    "success": true
  },
  {
    "time": 1534504196606,
    "file": "2018-08-17-04-09-56.zip",
    "index": 289,
    "success": true
  },
  {
    "time": 1534505096655,
    "file": "2018-08-17-04-24-56.zip",
    "index": 290,
    "success": true
  },
  {
    "time": 1534505996705,
    "file": "2018-08-17-04-39-56.zip",
    "index": 291,
    "success": true
  },
  {
    "time": 1534506896755,
    "file": "2018-08-17-04-54-56.zip",
    "index": 292,
    "success": true
  },
  {
    "time": 1534507796805,
    "file": "2018-08-17-05-09-56.zip",
    "index": 293,
    "success": true
  },
  {
    "time": 1534508696855,
    "file": "2018-08-17-05-24-56.zip",
    "index": 294,
    "success": true
  },
  {
    "time": 1534509596906,
    "file": "2018-08-17-05-39-56.zip",
    "index": 295,
    "success": true
  },
  {
    "time": 1534510496956,
    "file": "2018-08-17-05-54-56.zip",
    "index": 296,
    "success": true
  },
  {
    "time": 1534511397005,
    "file": "2018-08-17-06-09-57.zip",
    "index": 297,
    "success": true
  },
  {
    "time": 1534512297055,
    "file": "2018-08-17-06-24-57.zip",
    "index": 298,
    "success": true
  },
  {
    "time": 1534513197105,
    "file": "2018-08-17-06-39-57.zip",
    "index": 299,
    "success": true
  },
  {
    "time": 1534514097156,
    "file": "2018-08-17-06-54-57.zip",
    "index": 300,
    "success": true
  },
  {
    "time": 1534514997206,
    "file": "2018-08-17-07-09-57.zip",
    "index": 301,
    "success": true
  },
  {
    "time": 1534515897255,
    "file": "2018-08-17-07-24-57.zip",
    "index": 302,
    "success": true
  },
  {
    "time": 1534516797305,
    "file": "2018-08-17-07-39-57.zip",
    "index": 303,
    "success": true
  },
  {
    "time": 1534517697355,
    "file": "2018-08-17-07-54-57.zip",
    "index": 304,
    "success": true
  },
  {
    "time": 1534518597405,
    "file": "2018-08-17-08-09-57.zip",
    "index": 305,
    "success": true
  },
  {
    "time": 1534519497455,
    "file": "2018-08-17-08-24-57.zip",
    "index": 306,
    "success": true
  },
  {
    "time": 1534520397505,
    "file": "2018-08-17-08-39-57.zip",
    "index": 307,
    "success": true
  },
  {
    "time": 1534521297555,
    "file": "2018-08-17-08-54-57.zip",
    "index": 308,
    "success": true
  },
  {
    "time": 1534522197605,
    "file": "2018-08-17-09-09-57.zip",
    "index": 309,
    "success": true
  },
  {
    "time": 1534523097655,
    "file": "2018-08-17-09-24-57.zip",
    "index": 310,
    "success": true
  },
  {
    "time": 1534523997705,
    "file": "2018-08-17-09-39-57.zip",
    "index": 311,
    "success": true
  },
  {
    "time": 1534524897756,
    "file": "2018-08-17-09-54-57.zip",
    "index": 312,
    "success": true
  },
  {
    "time": 1534525797804,
    "file": "2018-08-17-10-09-57.zip",
    "index": 313,
    "success": true
  },
  {
    "time": 1534526697855,
    "file": "2018-08-17-10-24-57.zip",
    "index": 314,
    "success": true
  },
  {
    "time": 1534527597905,
    "file": "2018-08-17-10-39-57.zip",
    "index": 315,
    "success": true
  },
  {
    "time": 1534528497955,
    "file": "2018-08-17-10-54-57.zip",
    "index": 316,
    "success": true
  },
  {
    "time": 1534529398005,
    "file": "2018-08-17-11-09-58.zip",
    "index": 317,
    "success": true
  },
  {
    "time": 1534530298055,
    "file": "2018-08-17-11-24-58.zip",
    "index": 318,
    "success": true
  },
  {
    "time": 1534531198106,
    "file": "2018-08-17-11-39-58.zip",
    "index": 319,
    "success": true
  },
  {
    "time": 1534532098155,
    "file": "2018-08-17-11-54-58.zip",
    "index": 320,
    "success": true
  }
]